{
  "profile": {
    "editProfileButton": "Edit profile"
  },
  "settingsWindow": {
    "accountName": "Name",
    "description": "Bio",
    "location": "Location",
    "website": "Website",
    "addBirthDate": "Edit",
    "save": "Save"
  }
}
